module golang-redis-queue

go 1.21

require (
	github.com/keithwachira/go-taskq v0.0.0-20230119170049-8f03fdb8ef45
	github.com/redis/go-redis/v9 v9.5.1
)

require (
	github.com/cespare/xxhash/v2 v2.2.0 // indirect
	github.com/dgryski/go-rendezvous v0.0.0-20200823014737-9f7001d12a5f // indirect
)
